"x","freq","perc"
"(8e+03,9e+03]",276,0.68
"(9e+03,1e+04]",1049,2.6
"(1e+04,1.1e+04]",1142,2.83
"(1.1e+04,1.2e+04]",1570,3.89
"(1.2e+04,1.3e+04]",1531,3.79
"(1.3e+04,1.4e+04]",1564,3.87
"(1.4e+04,1.5e+04]",1488,3.68
"(1.5e+04,1.6e+04]",1390,3.44
"(1.6e+04,1.7e+04]",1349,3.34
"(1.7e+04,1.8e+04]",1335,3.31
"(1.8e+04,1.9e+04]",1423,3.52
"(1.9e+04,2e+04]",1511,3.74
"(2e+04,2.1e+04]",1654,4.1
"(2.1e+04,2.2e+04]",1710,4.23
"(2.2e+04,2.3e+04]",1687,4.18
"(2.3e+04,2.4e+04]",1627,4.03
"(2.4e+04,2.5e+04]",1756,4.35
"(2.5e+04,2.6e+04]",1557,3.86
"(2.6e+04,2.7e+04]",1371,3.39
"(2.7e+04,2.8e+04]",1373,3.4
"(2.8e+04,2.9e+04]",1356,3.36
"(2.9e+04,3e+04]",1280,3.17
"(3e+04,3.1e+04]",1096,2.71
"(3.1e+04,3.2e+04]",924,2.29
"(3.2e+04,3.3e+04]",752,1.86
"(3.3e+04,3.4e+04]",562,1.39
"(3.4e+04,3.5e+04]",486,1.2
"(3.5e+04,3.6e+04]",500,1.24
"(3.6e+04,3.7e+04]",485,1.2
"(3.7e+04,3.8e+04]",373,0.92
"(3.8e+04,3.9e+04]",322,0.8
"(3.9e+04,4e+04]",317,0.78
"(4e+04,4.1e+04]",290,0.72
"(4.1e+04,4.2e+04]",245,0.61
"(4.2e+04,4.3e+04]",202,0.5
"(4.3e+04,4.4e+04]",191,0.47
"(4.4e+04,4.5e+04]",182,0.45
"(4.5e+04,4.6e+04]",158,0.39
"(4.6e+04,4.7e+04]",141,0.35
"(4.7e+04,4.8e+04]",146,0.36
"(4.8e+04,4.9e+04]",126,0.31
"(4.9e+04,5e+04]",117,0.29
"(5e+04,5.1e+04]",118,0.29
"(5.1e+04,5.2e+04]",108,0.27
"(5.2e+04,5.3e+04]",98,0.24
"(5.3e+04,5.4e+04]",86,0.21
"(5.4e+04,5.5e+04]",87,0.22
"(5.5e+04,5.6e+04]",77,0.19
"(5.6e+04,5.7e+04]",71,0.18
"(5.7e+04,5.8e+04]",72,0.18
"(5.8e+04,5.9e+04]",63,0.16
"(5.9e+04,6e+04]",65,0.16
"(6e+04,6.1e+04]",59,0.15
"(6.1e+04,6.2e+04]",62,0.15
"(6.2e+04,6.3e+04]",46,0.11
"(6.3e+04,6.4e+04]",51,0.13
"(6.4e+04,6.5e+04]",42,0.1
"(6.5e+04,6.6e+04]",36,0.09
"(6.6e+04,6.7e+04]",41,0.1
"(6.7e+04,6.8e+04]",28,0.07
"(6.8e+04,6.9e+04]",30,0.07
"(6.9e+04,7e+04]",27,0.07
"(7e+04,7.1e+04]",25,0.06
"(7.1e+04,7.2e+04]",30,0.07
"(7.2e+04,7.3e+04]",26,0.06
"(7.3e+04,7.4e+04]",27,0.07
"(7.4e+04,7.5e+04]",25,0.06
"(7.5e+04,7.6e+04]",20,0.05
"(7.6e+04,7.7e+04]",12,0.03
"(7.7e+04,7.8e+04]",27,0.07
"(7.8e+04,7.9e+04]",19,0.05
"(7.9e+04,8e+04]",18,0.04
"(8e+04,8.1e+04]",22,0.05
"(8.1e+04,8.2e+04]",15,0.04
"(8.2e+04,8.3e+04]",16,0.04
"(8.3e+04,8.4e+04]",16,0.04
"(8.4e+04,8.5e+04]",16,0.04
"(8.5e+04,8.6e+04]",11,0.03
"(8.6e+04,8.7e+04]",15,0.04
"(8.7e+04,8.8e+04]",15,0.04
"(8.8e+04,8.9e+04]",9,0.02
"(8.9e+04,9e+04]",7,0.02
"(9e+04,9.1e+04]",9,0.02
"(9.1e+04,9.2e+04]",6,0.01
"(9.2e+04,9.3e+04]",8,0.02
"(9.3e+04,9.4e+04]",7,0.02
"(9.4e+04,9.5e+04]",7,0.02
"(9.5e+04,9.6e+04]",11,0.03
"(9.6e+04,9.7e+04]",4,0.01
"(9.7e+04,9.8e+04]",3,0.01
"(9.8e+04,9.9e+04]",3,0.01
"(9.9e+04,1e+05]",4,0.01
"(1e+05,1e+06]",69,0.17
