"x","freq","perc"
"(8e+03,9e+03]",800,0.68
"(9e+03,1e+04]",3462,2.94
"(1e+04,1.1e+04]",3653,3.1
"(1.1e+04,1.2e+04]",4027,3.42
"(1.2e+04,1.3e+04]",3917,3.33
"(1.3e+04,1.4e+04]",3913,3.32
"(1.4e+04,1.5e+04]",3473,2.95
"(1.5e+04,1.6e+04]",3653,3.1
"(1.6e+04,1.7e+04]",4005,3.4
"(1.7e+04,1.8e+04]",4176,3.55
"(1.8e+04,1.9e+04]",4246,3.61
"(1.9e+04,2e+04]",4595,3.9
"(2e+04,2.1e+04]",5078,4.31
"(2.1e+04,2.2e+04]",5161,4.38
"(2.2e+04,2.3e+04]",4912,4.17
"(2.3e+04,2.4e+04]",4832,4.1
"(2.4e+04,2.5e+04]",4942,4.2
"(2.5e+04,2.6e+04]",4700,3.99
"(2.6e+04,2.7e+04]",4181,3.55
"(2.7e+04,2.8e+04]",3909,3.32
"(2.8e+04,2.9e+04]",3796,3.22
"(2.9e+04,3e+04]",3394,2.88
"(3e+04,3.1e+04]",2931,2.49
"(3.1e+04,3.2e+04]",2555,2.17
"(3.2e+04,3.3e+04]",2093,1.78
"(3.3e+04,3.4e+04]",1739,1.48
"(3.4e+04,3.5e+04]",1515,1.29
"(3.5e+04,3.6e+04]",1318,1.12
"(3.6e+04,3.7e+04]",1173,1
"(3.7e+04,3.8e+04]",998,0.85
"(3.8e+04,3.9e+04]",850,0.72
"(3.9e+04,4e+04]",784,0.67
"(4e+04,4.1e+04]",736,0.63
"(4.1e+04,4.2e+04]",716,0.61
"(4.2e+04,4.3e+04]",655,0.56
"(4.3e+04,4.4e+04]",562,0.48
"(4.4e+04,4.5e+04]",545,0.46
"(4.5e+04,4.6e+04]",469,0.4
"(4.6e+04,4.7e+04]",437,0.37
"(4.7e+04,4.8e+04]",430,0.37
"(4.8e+04,4.9e+04]",411,0.35
"(4.9e+04,5e+04]",406,0.34
"(5e+04,5.1e+04]",390,0.33
"(5.1e+04,5.2e+04]",372,0.32
"(5.2e+04,5.3e+04]",354,0.3
"(5.3e+04,5.4e+04]",373,0.32
"(5.4e+04,5.5e+04]",334,0.28
"(5.5e+04,5.6e+04]",333,0.28
"(5.6e+04,5.7e+04]",296,0.25
"(5.7e+04,5.8e+04]",291,0.25
"(5.8e+04,5.9e+04]",259,0.22
"(5.9e+04,6e+04]",256,0.22
"(6e+04,6.1e+04]",238,0.2
"(6.1e+04,6.2e+04]",241,0.2
"(6.2e+04,6.3e+04]",232,0.2
"(6.3e+04,6.4e+04]",199,0.17
"(6.4e+04,6.5e+04]",184,0.16
"(6.5e+04,6.6e+04]",178,0.15
"(6.6e+04,6.7e+04]",153,0.13
"(6.7e+04,6.8e+04]",135,0.11
"(6.8e+04,6.9e+04]",132,0.11
"(6.9e+04,7e+04]",124,0.11
"(7e+04,7.1e+04]",123,0.1
"(7.1e+04,7.2e+04]",115,0.1
"(7.2e+04,7.3e+04]",106,0.09
"(7.3e+04,7.4e+04]",101,0.09
"(7.4e+04,7.5e+04]",88,0.07
"(7.5e+04,7.6e+04]",87,0.07
"(7.6e+04,7.7e+04]",70,0.06
"(7.7e+04,7.8e+04]",72,0.06
"(7.8e+04,7.9e+04]",71,0.06
"(7.9e+04,8e+04]",63,0.05
"(8e+04,8.1e+04]",58,0.05
"(8.1e+04,8.2e+04]",67,0.06
"(8.2e+04,8.3e+04]",55,0.05
"(8.3e+04,8.4e+04]",60,0.05
"(8.4e+04,8.5e+04]",59,0.05
"(8.5e+04,8.6e+04]",52,0.04
"(8.6e+04,8.7e+04]",51,0.04
"(8.7e+04,8.8e+04]",44,0.04
"(8.8e+04,8.9e+04]",45,0.04
"(8.9e+04,9e+04]",43,0.04
"(9e+04,9.1e+04]",38,0.03
"(9.1e+04,9.2e+04]",36,0.03
"(9.2e+04,9.3e+04]",34,0.03
"(9.3e+04,9.4e+04]",34,0.03
"(9.4e+04,9.5e+04]",34,0.03
"(9.5e+04,9.6e+04]",37,0.03
"(9.6e+04,9.7e+04]",35,0.03
"(9.7e+04,9.8e+04]",28,0.02
"(9.8e+04,9.9e+04]",30,0.03
"(9.9e+04,1e+05]",36,0.03
"(1e+05,1e+06]",751,0.64
